TUD FOR WEEKDAYS
…
Work

257

33.46

#Monday TUD
Im trying to see the count for all the activities in the TUD

groupbymonAct <- monday %>%
  dplyr::group_by(Activity) %>%
  dplyr::summarize(count = n())
groupbymonAct

## # A tibble: 47 x 2
##    Activity                   count
##    <chr>                      <int>
##  1 Breakfast                      7
##  2 Church (social activities)     1
##  3 Cooking                       17
##  4 Cooking (business)             2
##  5 Cooking (lunch)                1
##  6 Dinner                        16
##  7 Driving (church)               3
##  8 Driving (drop kids)            2
##  9 Driving (drop relatives)       1
## 10 Driving (farm)                 1
## #  with 37 more rows
…
